<?xml version="1.0" encoding="UTF-8" standalone="no"?>
<svg
   xmlns:dc="http://purl.org/dc/elements/1.1/"
   xmlns:cc="http://creativecommons.org/ns#"
   xmlns:rdf="http://www.w3.org/1999/02/22-rdf-syntax-ns#"
   xmlns:svg="http://www.w3.org/2000/svg"
   xmlns="http://www.w3.org/2000/svg"
   xmlns:sodipodi="http://sodipodi.sourceforge.net/DTD/sodipodi-0.dtd"
   xmlns:inkscape="http://www.inkscape.org/namespaces/inkscape"
   inkscape:version="1.0beta2 (2b71d25, 2019-12-03)"
   sodipodi:docname="feature.svg"
   id="svg909"
   version="1.1"
   viewBox="0 0 32 32">
  <metadata
     id="metadata915">
    <rdf:RDF>
      <cc:Work
         rdf:about="">
        <dc:format>image/svg+xml</dc:format>
        <dc:type
           rdf:resource="http://purl.org/dc/dcmitype/StillImage" />
      </cc:Work>
    </rdf:RDF>
  </metadata>
  <defs
     id="defs913" />
  <sodipodi:namedview
     inkscape:current-layer="svg909"
     inkscape:window-maximized="0"
     inkscape:window-y="89"
     inkscape:window-x="1498"
     inkscape:cy="16"
     inkscape:cx="16"
     inkscape:zoom="27.15625"
     showgrid="false"
     id="namedview911"
     inkscape:window-height="804"
     inkscape:window-width="1381"
     inkscape:pageshadow="2"
     inkscape:pageopacity="0"
     guidetolerance="10"
     gridtolerance="10"
     objecttolerance="10"
     borderopacity="1"
     inkscape:document-rotation="0"
     bordercolor="#666666"
     pagecolor="#ffffff" />
  <path
     style="fill:#f7d964;fill-opacity:1"
     id="path907"
     d="M20.27 30.85L16 28.43l-4.27 2.42-2.28-4.34-4.9-.28.45-4.89-4-2.88 3-3.88L2.22 10l4.62-1.63 1-4.81 4.78 1.12L16 1.15l3.42 3.52 4.78-1.12 1 4.81L29.78 10 28 14.58l3 3.88-4 2.88.42 4.89-4.9.28z" />
</svg>
